<?xml version="1.0" encoding="utf-8"?>
<!-- Generator: Adobe Illustrator 16.0.3, SVG Export Plug-In . SVG Version: 6.00 Build 0)  -->
<!DOCTYPE svg PUBLIC "-//W3C//DTD SVG 1.1//EN" "http://www.w3.org/Graphics/SVG/1.1/DTD/svg11.dtd">
<svg version="1.1" xmlns="http://www.w3.org/2000/svg" xmlns:xlink="http://www.w3.org/1999/xlink" x="0px" y="0px"
	 width="340.16px" height="481.891px" viewBox="0 0 340.16 481.891" enable-background="new 0 0 340.16 481.891"
	 xml:space="preserve">
<g id="Calque_4">
	<circle fill="#A3D7F6" cx="164.127" cy="174.23" r="118.25"/>
</g>
<g id="Calque_6">
	<circle fill="#FFFFFF" stroke="#FFFFFF" stroke-width="9" stroke-miterlimit="10" cx="164.127" cy="174.459" r="83.571"/>
	<polygon fill="#5F0000" points="193.662,238.847 160.942,236.539 136.828,216.753 121.456,191.417 116.702,166.81 96.817,153.962 
		93.786,136.27 106.169,121.74 160.752,126.64 219.256,149.571 235.545,173.711 230.609,204.368 202.732,237.596 	"/>
	<path stroke="#000000" stroke-width="2" stroke-miterlimit="10" d="M230.299,216.553c-0.193,0.306-0.48,0.767-0.672,1.074
		l-0.096,0.154c-9.324,14.234-20.967,22.961-34.645,25.724c-21.811,4.508-40.994-7.482-43.046-8.979
		c-2.857-1.573-36.734-21.465-34.605-49.798c-0.211-2.053-1.785-17.975-11.854-22.349c-6.869-1.304-18.742-7.231-17.955-21.465
		c0.978-9.418,8.92-26.223,32.782-24.112c2.514,0.077,66.123,3.127,93.17,23.02c0.613,0.384,20.623,13.103,25.553,35.604
		C241.693,189.103,238.93,202.741,230.299,216.553z M222.682,213.713C222.779,213.561,222.779,213.561,222.682,213.713
		c8.174-12.392,10.879-24.572,8.48-36.102c-4.182-19.259-22.041-30.634-22.195-30.73c-25.205-18.741-88.662-21.695-89.314-21.677
		c-22.155-2.11-24.284,15.98-24.266,16.631c-0.729,11.068,11.126,12.93,11.682,13.065c0.403,0.038,0.557,0.133,0.864,0.324
		c15.903,6.312,17.264,28.717,17.245,29.772c0.058,0.25-0.038,0.402,0.019,0.652c-1.957,23.96,30.271,42.394,30.578,42.586
		c0.154,0.096,0.154,0.096,0.308,0.192c0.153,0.095,17.819,11.777,37.138,7.846C204.631,233.376,214.607,225.953,222.682,213.713
		L222.682,213.713z"/>
	<path d="M210.309,213.022c-0.672,1.075-1.707,1.708-3.107,1.9c-2.205,0.114-4.162-1.535-4.277-3.741l-3.816-51.256
		c-0.115-2.206,1.535-4.163,3.74-4.277c2.207-0.115,4.164,1.536,4.277,3.741l3.818,51.255
		C210.865,211.451,210.789,212.255,210.309,213.022z"/>
	<path d="M183.76,222.04c-0.67,1.073-1.801,1.859-3.107,1.898c-2.207,0.114-4.161-1.535-4.276-3.74l-4.718-71.667
		c-0.116-2.206,1.533-4.163,3.74-4.278c2.207-0.116,4.162,1.535,4.279,3.74l4.563,71.57
		C184.318,220.464,184.145,221.424,183.76,222.04z"/>
	<path d="M155.486,209.915c-0.672,1.073-1.804,1.86-3.108,1.898c-2.207,0.115-4.164-1.534-4.278-3.741l-4.546-65.795
		c-0.114-2.207,1.535-4.164,3.741-4.279c2.206-0.114,4.163,1.534,4.277,3.741l4.393,65.702
		C156.042,208.341,155.966,209.147,155.486,209.915z"/>
	<g>
		<path fill="#5F0000" d="M142.815,91.04c1.261,5.845-2.453,11.605-8.299,12.866c5.846-1.26,11.605,2.455,12.867,8.301
			c-1.224-5.667,2.239-11.244,7.779-12.728l-0.012-0.054C149.491,100.357,144.038,96.707,142.815,91.04z"/>
		<path fill="#5F0000" d="M142.651,90.426c0.056,0.204,0.12,0.405,0.165,0.614c-0.045-0.209-0.071-0.418-0.102-0.627L142.651,90.426
			z"/>
	</g>
	<g>
		<path fill="#5F0000" d="M164.39,102.164c0.823,3.813-1.602,7.57-5.414,8.393c3.813-0.822,7.571,1.602,8.393,5.415
			c-0.798-3.698,1.461-7.334,5.074-8.302l-0.008-0.036C168.744,108.242,165.187,105.86,164.39,102.164z"/>
		<path fill="#5F0000" d="M164.281,101.764c0.039,0.132,0.079,0.263,0.108,0.4c-0.029-0.137-0.044-0.273-0.066-0.409
			L164.281,101.764z"/>
	</g>
	<g>
		<path fill="#FFFFFF" d="M112.714,117.475c1.262,5.845-2.453,11.604-8.299,12.866c5.846-1.261,11.605,2.455,12.867,8.301
			c-1.223-5.668,2.24-11.244,7.78-12.729l-0.012-0.053C119.39,126.791,113.937,123.141,112.714,117.475z"/>
		<path fill="#FFFFFF" d="M112.549,116.86c0.056,0.204,0.12,0.405,0.165,0.614c-0.045-0.209-0.07-0.418-0.102-0.628L112.549,116.86z
			"/>
	</g>
	<g>
		<path fill="#FFFFFF" d="M210.994,143.088c1.262,5.845-2.453,11.604-8.299,12.866c5.846-1.26,11.605,2.455,12.867,8.301
			c-1.225-5.668,2.238-11.244,7.779-12.728l-0.012-0.053C217.67,152.405,212.217,148.754,210.994,143.088z"/>
		<path fill="#FFFFFF" d="M210.83,142.474c0.057,0.204,0.119,0.405,0.164,0.614c-0.045-0.209-0.07-0.418-0.102-0.628L210.83,142.474
			z"/>
	</g>
	<g>
		<path fill="#5F0000" d="M96.566,167.878c0.823,3.813-1.601,7.57-5.414,8.393c3.813-0.822,7.571,1.601,8.394,5.415
			c-0.798-3.698,1.461-7.334,5.074-8.303l-0.008-0.035C100.921,173.956,97.364,171.574,96.566,167.878z"/>
		<path fill="#5F0000" d="M96.458,167.478c0.039,0.132,0.079,0.264,0.108,0.4c-0.029-0.136-0.044-0.274-0.066-0.409L96.458,167.478z
			"/>
	</g>
	<g>
		<g>
			<path d="M267.563,252.521c0.59-0.589,0.913-1.379,0.926-2.213l0.034-36.482c0.012-0.034,0.014-0.055,0.012-0.1
				c0-0.022-0.01-0.056-0.01-0.078l0.012-9.769l6.697,0.009c0.834,0.012,1.637-0.321,2.227-0.91
				c0.591-0.589,0.926-1.389,0.916-2.225c0.054-44.392-7.281-81.583-16.33-91.855c-1.514-1.718-1.769-1.906-1.967-1.972
				c-1.646-0.551-3.555,0.403-3.557,2.139l-0.105,91.646l-0.016,12.995l-0.045,36.582c-0.004,1.735,1.396,3.139,3.132,3.141
				l5.847,0.024C266.171,253.441,266.973,253.109,267.563,252.521z M274.083,197.586l-6.687,0.003l-6.676-0.009l0.093-82.767
				C267.344,124.056,273.825,154.683,274.083,197.586z M262.254,210.569l-1.561-0.004l0.02-6.687l3.537,0.004L262.254,210.569z
				 M262.197,247.141l-1.551,0.006l0.039-30.285l1.561,0.004L262.197,247.141z"/>
		</g>
		<polygon points="264.247,249.278 260.08,249.278 260.247,112.279 264.247,113.779 273.747,153.671 276.08,191.612 274.08,200.779 
			267.08,200.945 		"/>
	</g>
	<g>
		<g>
			<path stroke="#000000" stroke-miterlimit="10" d="M56.005,159.623c0.642,0.442,1.306,0.897,1.9,1.383
				c0.825,0.672,1.806,1.61,2.081,2.915c0.098,0.465,0.078,1.01,0.058,1.585c-0.009,0.256-0.02,0.521-0.02,0.79
				c0,3.874-0.123,7.823-0.245,11.643c-0.109,3.474-0.221,7.07-0.242,10.592c-0.016,3.122-0.103,6.285-0.187,9.341
				c-0.049,1.805-0.101,3.668-0.139,5.508c-0.023,1.16-0.044,2.321-0.064,3.48c-0.069,3.716-0.142,7.559-0.259,11.327
				c-0.102,3.235-0.152,6.557-0.202,9.771c-0.049,3.277-0.1,6.664-0.204,10.029c-0.104,3.278-0.205,6.743-0.205,9.903
				c0,3.229,1.874,5.465,4.666,5.559c0.063,0.002,0.125,0.004,0.188,0.004c2.699,0,4.676-2.17,4.807-5.277
				c0.051-1.182,0.008-2.408-0.035-3.592c-0.017-0.471-0.032-0.938-0.045-1.402c-0.046-1.973-0.104-3.995-0.16-5.951
				c-0.128-4.517-0.26-9.188-0.285-13.807c-0.022-3.906-0.143-7.87-0.262-11.703c-0.131-4.248-0.267-8.64-0.267-13.005
				c0-3.201-0.067-6.532-0.203-9.904c-0.063-1.656-0.093-3.337-0.122-4.965c-0.028-1.599-0.055-3.252-0.119-4.85
				c-0.133-3.325-0.205-6.747-0.205-9.898c0-0.617-0.175-4.018-0.04-4.938c0.208-1.419,1.121-2.288,1.96-2.99
				c0.651-0.548,1.365-1.044,2.055-1.523c2.259-1.569,4.592-3.192,4.913-6.771c0.093-1.063,0.05-2.222,0.005-3.449
				c-0.019-0.48-0.036-0.977-0.046-1.468c-0.02-1.014-0.036-2.037-0.052-3.063c-0.034-2.23-0.071-4.535-0.153-6.839
				c-0.05-1.491-0.067-3.021-0.084-4.503c-0.019-1.771-0.038-3.6-0.117-5.4c-0.069-1.564-0.083-3.187-0.095-4.756
				c-0.014-1.685-0.026-3.425-0.109-5.144c-0.067-1.453-0.088-2.957-0.106-4.411c-0.012-0.971-0.027-1.974-0.054-2.972
				c-0.007-0.24-0.009-0.483-0.012-0.725c-0.015-1.689-0.029-3.288-1.556-3.613h-0.342l-0.017,0.001
				c-1.683,0.358-1.615,2.591-1.551,4.749c0.013,0.391,0.025,0.798,0.025,1.176v28.889c0,0.449,0.02,0.929,0.034,1.393
				c0.046,1.189,0.092,2.418-0.153,3.289c-0.087,0.305-0.435,1.299-1.314,1.299c-0.117,0-0.243-0.02-0.37-0.056
				c-1.261-0.365-1.196-2.619-1.139-4.605c0.012-0.408,0.023-0.794,0.023-1.159v-29.051c0-0.383,0.012-0.776,0.025-1.196
				c0.067-2.196,0.135-4.466-1.566-4.729h-0.284l-0.017,0.002c-1.527,0.317-1.527,1.843-1.527,3.607v33.558
				c0,0.324,0.008,0.629,0.017,0.922c0.043,1.704,0.067,2.732-1.473,2.914c-0.767,0.09-1.308-0.487-1.41-1.027
				c-0.214-1.141-0.21-2.657-0.202-4.12c0-0.241,0.001-0.481,0.001-0.72c0-5.171,0.037-9.832,0.075-14.341
				c0.037-4.483,0.075-9.116,0.075-14.22c0-0.43,0.016-0.883,0.032-1.363c0.079-2.278,0.171-4.862-1.578-5.212h-0.323l-0.019,0.002
				c-1.66,0.343-1.603,2.495-1.547,4.577c0.011,0.365,0.021,0.745,0.021,1.102v29.173c0,0.438,0.018,0.899,0.036,1.388
				c0.047,1.229,0.094,2.499-0.155,3.337c-0.201,0.677-0.793,1.187-1.374,1.187c-0.308,0-0.598-0.14-0.838-0.408
				c-0.719-0.798-0.664-2.575-0.612-4.293c0.014-0.438,0.026-0.851,0.026-1.25v-28.604c0-0.407,0.015-0.839,0.031-1.293
				c0.077-2.158,0.165-4.603-1.576-4.915h-0.295c-1.572,0.224-1.572,2.238-1.572,4.017c0,4.51-0.146,9.143-0.283,13.619
				c-0.141,4.466-0.284,9.083-0.284,13.566c0,1.697-0.052,3.375-0.101,4.999c-0.05,1.6-0.102,3.253-0.102,4.901
				c0,0.784-0.025,1.515-0.05,2.221c-0.034,0.951-0.065,1.851-0.03,2.773C51.196,156.311,53.641,157.995,56.005,159.623z"/>
		</g>
		<path d="M57.58,160.963c0-2.938,2.313-5.32,5.167-5.32l0,0c2.854,0,5.167,2.382,5.167,5.32v87.17c0,2.938-2.313,5.319-5.167,5.319
			l0,0c-2.854,0-5.167-2.382-5.167-5.319V160.963z"/>
	</g>
	<g>
		<path fill="#FFFFFF" d="M256.56,109.154c-0.016,3.9-3.191,7.049-7.091,7.034c3.9,0.016,7.049,3.191,7.033,7.091
			c0.016-3.783,3.003-6.849,6.739-7.018l0.001-0.036C259.506,116.026,256.544,112.936,256.56,109.154z"/>
		<path fill="#FFFFFF" d="M256.539,108.74c0.01,0.138,0.021,0.274,0.021,0.414c0.001-0.14,0.015-0.276,0.022-0.414L256.539,108.74z"
			/>
	</g>
</g>
</svg>
