<?xml version="1.0" encoding="utf-8"?>
<!-- Generator: Adobe Illustrator 16.0.0, SVG Export Plug-In . SVG Version: 6.00 Build 0)  -->
<!DOCTYPE svg PUBLIC "-//W3C//DTD SVG 1.1//EN" "http://www.w3.org/Graphics/SVG/1.1/DTD/svg11.dtd">
<svg version="1.1" id="Calque_1" xmlns="http://www.w3.org/2000/svg" xmlns:xlink="http://www.w3.org/1999/xlink" x="0px" y="0px"
	 width="340.16px" height="481.891px" viewBox="0 0 340.16 481.891" enable-background="new 0 0 340.16 481.891"
	 xml:space="preserve">
<g>
	<g id="Calque_6">
		<g>
			<path fill="#A3D7F6" d="M181.977,225.04c0,12.586-7.689,23.071-18.179,27.619v39.036c5.046-0.411,10-1.146,14.845-2.176v-28.777
				c9.418-7.063,15.303-18.539,15.303-30.9v-55.327l-0.393-16.774h21.287c12.361,0,22.071,10.006,22.366,22.072v48.558
				c0,9.123-5.593,17.068-13.537,20.305v20.549c28.851-21.322,47.562-55.577,47.562-94.206c0-64.658-52.416-117.074-117.074-117.074
				c-64.659,0-117.074,52.416-117.074,117.074c0,46.163,26.721,86.079,65.537,105.141v-27.152
				c-10.836-4.545-18.178-15.382-18.178-27.618v-65.723c0-16.431,13.285-29.715,29.715-29.715h37.756
				c16.431,0,29.714,13.284,29.714,29.715 M132.684,120.863c-15.253,0-27.618-12.365-27.618-27.618s12.364-27.617,27.618-27.617
				c15.253,0,27.618,12.364,27.618,27.617S147.937,120.863,132.684,120.863z M200.714,151.267c-11.378,0-20.601-9.223-20.601-20.6
				c0-11.376,9.223-20.601,20.601-20.601c11.377,0,20.601,9.224,20.601,20.601S212.091,151.267,200.714,151.267z"/>
		</g>
	</g>
	<g>
		<path d="M102.617,280.176"/>
		<circle cx="200.714" cy="130.683" r="20.601"/>
		<circle cx="132.684" cy="93.261" r="27.617"/>
		<path d="M178.722,289.519c16.549-3.533,31.801-10.562,44.947-20.278v-20.549c7.944-3.236,13.537-11.181,13.537-20.304v-48.558
			c-0.295-12.066-10.005-22.072-22.366-22.072h-21.287l0.393,16.774v55.327c0,12.361-5.885,23.837-15.303,30.9v28.777"/>
		<path d="M223.678,269.234"/>
		<path d="M163.819,291.709"/>
		<path d="M181.626,159.683c0-16.431-13.283-29.715-29.714-29.715h-37.756c-16.43,0-29.715,13.284-29.715,29.715v65.723
			c0,12.236,7.342,23.072,18.178,27.617v27.152c15.552,7.638,33.042,11.934,51.537,11.934c3.247,0,6.461-0.139,9.642-0.398v-39.035
			c10.489-4.549,18.179-15.034,18.179-27.62"/>
	</g>
	<g>
		<g>
			<g>
				<polygon fill="#FFFFFF" points="141.905,194.278 141.905,176.798 125.005,176.798 125.005,194.24 133.761,197.91 				"/>
			</g>
		</g>
		<g>
			<g>
				<path fill="#5F0000" d="M104.563,275.889v-88.271c4.173-1.221,7.419-4.593,8.371-9.02c0.052-0.242,0.078-0.488,0.078-0.736
					v-16.474h6.559c0.346,0,0.681-0.05,0.997-0.144h1.229c0.315,0.093,0.648,0.143,0.994,0.143h21.729
					c0.345,0,0.679-0.05,0.994-0.143h1.233c0.315,0.093,0.648,0.143,0.994,0.143h6.157v14.608c0,0.279,0.033,0.551,0.095,0.812
					c0.33,5.098,3.75,9.346,8.357,10.8v88.283H104.563L104.563,275.889z M122.791,170.886c-1.933,0-3.5,1.567-3.5,3.5v21.459
					c0,1.41,0.846,2.683,2.147,3.229l11.2,4.695c0.433,0.181,0.893,0.272,1.353,0.272c0.486,0,0.972-0.101,1.425-0.303l10.529-4.695
					c1.262-0.563,2.075-1.815,2.075-3.197v-21.459c0-1.933-1.567-3.5-3.5-3.5H122.791z"/>
			</g>
			<g>
				<path fill="#5F0000" d="M146.325,164.744c0.457,0.094,0.93,0.143,1.415,0.143h2.657v5.695c-1.248-1.923-3.414-3.196-5.877-3.196
					h-21.729c-2.754,0-5.136,1.59-6.279,3.902v-6.4h3.059c0.486,0,0.961-0.05,1.419-0.144h0.385c0.457,0.094,0.93,0.143,1.415,0.143
					h21.729c0.485,0,0.958-0.049,1.415-0.143H146.325 M115.791,181.322v14.522c0,2.82,1.693,5.365,4.294,6.456l11.2,4.695
					c0.866,0.363,1.786,0.544,2.706,0.544c0.972,0,1.944-0.203,2.851-0.607l10.529-4.695c2.524-1.125,4.149-3.63,4.149-6.394
					v-14.154c1.375,3.567,4.002,6.5,7.329,8.237v82.461h-50.786v-82.387C111.622,188.253,114.417,185.184,115.791,181.322
					 M147.74,157.744h-3.22v0.143h-21.729v-0.143h-3.22v0.144h-10.059v19.974c-0.839,3.903-4.265,6.753-8.449,6.753v0.235v3.621
					v90.917h64.786v-90.92v-3.621v-0.204c-4.631,0-8.383-3.852-8.383-8.649h-0.068v-18.108h-9.657L147.74,157.744L147.74,157.744z
					 M133.991,200.54l-11.2-4.695v-21.459h21.729v21.459L133.991,200.54L133.991,200.54z"/>
			</g>
		</g>
	</g>
	<g>
		<path fill="#5F0000" d="M133.254,183.779c-10.802,0-19.591-12.636-19.591-28.167s8.789-28.167,19.591-28.167
			c10.803,0,19.591,12.636,19.591,28.167S144.057,183.779,133.254,183.779z M133.254,131.445c-8.597,0-15.591,10.841-15.591,24.167
			s6.994,24.167,15.591,24.167c8.597,0,15.591-10.841,15.591-24.167S141.851,131.445,133.254,131.445z"/>
	</g>
	<g>
		<g>
			<polygon fill="#FFFFFF" points="131.379,216.118 117.129,200.618 127.879,146.368 121.379,139.118 133.456,126.374 
				146.129,136.868 140.129,147.618 149.379,199.868 133.456,217.118 			"/>
		</g>
		<g>
			<path d="M152.263,201.074l-10.302-53.665l6.446-6.749c0.483-0.508,0.764-1.21,0.764-1.952c0-0.722-0.28-1.424-0.764-1.95
				l-13.079-13.714c-1.023-1.073-2.683-1.073-3.726,0l-13.097,13.714c-0.484,0.507-0.764,1.209-0.764,1.95s0.279,1.424,0.764,1.952
				l6.445,6.749l-10.303,53.665c-0.167,0.897,0.094,1.833,0.728,2.496l16.208,16.972c0.521,0.547,1.192,0.801,1.863,0.801
				c0.67,0,1.341-0.273,1.862-0.801l16.209-16.972C152.152,202.907,152.431,201.971,152.263,201.074z M133.465,128.896l9.371,9.812
				l-4.824,5.053h-9.092l-4.825-5.053L133.465,128.896z M133.465,214.69l-13.357-13.987l9.874-51.461h6.968l9.874,51.461
				L133.465,214.69z"/>
		</g>
	</g>
	<g id="sourire_étoile">
		<path fill="none" stroke="#FFFFFF" stroke-width="4" stroke-linecap="round" stroke-miterlimit="10" d="M116.471,99.888
			c0,0,4.609,7.955,16.985,7.955c7.999,0,14.733-7.451,14.733-7.451"/>
		<g>
			<path fill="#FFFFFF" d="M154.331,85.763c0,3.9-3.161,7.062-7.062,7.062c3.9,0,7.062,3.162,7.062,7.063
				c0-3.783,2.975-6.861,6.712-7.045v-0.036C157.306,92.622,154.331,89.544,154.331,85.763z"/>
			<path fill="#FFFFFF" d="M154.311,85.349c0.009,0.137,0.021,0.274,0.021,0.414c0-0.14,0.014-0.277,0.021-0.414H154.311z"/>
		</g>
	</g>
	<g id="texte">
		<g display="none">
			<circle display="inline" fill="#36B17E" cx="269.021" cy="219.126" r="24.167"/>
			<g display="inline">
				<g>
					<path fill="#FFFFFF" d="M287.198,209.63l-3.064-3.064c-0.563-0.564-1.483-0.564-2.046,0l-18.377,18.375l-8.738-8.801
						c-0.563-0.564-1.477-0.564-2.045,0l-3.064,3.064c-0.563,0.564-0.563,1.477,0,2.041l12.816,12.904
						c0.564,0.563,1.48,0.563,2.043,0l22.477-22.475C287.764,211.11,287.764,210.194,287.198,209.63"/>
				</g>
			</g>
		</g>
		<path display="none" fill="#A3D7F6" d="M154.156,55.593c-65.308,0-118.25,52.942-118.25,118.25
			c0,33.065,13.577,62.955,35.453,84.415v-16.361h-3.002c-5.381,0-9.745-3.774-9.745-8.438v-48.239c0-4.658,4.364-8.438,9.745-8.438
			h30.262c0,4.915,0.104,5.421,0.104,8.438v48.239c0,7.868,5.182,10.274,12.744,13.655v37.033c4.483,1.735,9.019,3.184,13.75,4.373
			v-55.867h-3c-5.384,0-9.749-4.358-9.749-9.745v-55.711c0-5.381,4.365-9.745,9.749-9.745h63.016c5.384,0,9.742,4.367,9.744,9.745
			v55.711c0,5.385-4.36,9.745-9.744,9.745h-4.149v56.358c4.696-1.094,9.287-2.466,13.75-4.101v-37.323
			c8.183-3.187,13.897-5.869,13.897-14.131v-48.239c0-3.015-0.236-4.521-0.486-8.436l31.708-0.002c5.38,0,9.749,3.782,9.747,8.438
			v48.239c0,4.663-4.367,8.438-9.749,8.438h-4.144v17.481c22.551-21.533,36.6-51.892,36.6-85.533
			C272.406,108.535,219.464,55.593,154.156,55.593z M85.039,166.331c-9.309,0-16.857-7.547-16.857-16.857
			s7.548-16.857,16.857-16.857c9.31,0,16.858,7.547,16.858,16.857S94.349,166.331,85.039,166.331z M153.579,149.474
			c-12.205,0-22.098-9.895-22.098-22.099s9.893-22.098,22.098-22.098s22.098,9.894,22.098,22.098S165.784,149.474,153.579,149.474z
			 M222.266,166.333c-9.311,0-16.858-7.549-16.858-16.859s7.549-16.858,16.858-16.858c9.313,0,16.859,7.548,16.859,16.858
			S231.577,166.333,222.266,166.333z"/>
		<g>
			<circle fill="none" cx="154.845" cy="174.82" r="96.25"/>
			<path d="M178.891,67.807l2.887,0.773l-1.101,4.104l0.035,0.01c0.72-0.738,1.786-0.825,2.813-0.551
				c0.922,0.247,1.929,0.871,2.341,1.765c0.563,1.176,0.421,2.051-0.04,3.772l-1.444,5.391l-2.887-0.773l1.405-5.252
				c0.127-0.469,0.541-2.017-1.006-2.432c-1.617-0.434-2.004,1.01-2.131,1.479l-1.434,5.356l-2.889-0.773L178.891,67.807z"/>
			<path d="M195.794,87.516l-2.771-1.117l0.401-1.002l-0.032-0.014c-0.83,0.714-2.15,0.667-3.234,0.23
				c-2.939-1.186-3.73-4.181-2.66-6.836c1.225-3.037,4.177-4.059,6.646-3.063c1.521,0.611,2.076,1.688,2.182,2.391l0.033,0.015
				l0.396-0.986l2.771,1.117L195.794,87.516z M191.617,83.193c1.736,0.699,2.912-0.534,3.275-1.436
				c0.45-1.118,0.181-2.663-1.39-3.296c-1.586-0.639-2.825,0.414-3.249,1.466C189.904,80.797,189.948,82.52,191.617,83.193z"/>
			<path d="M202.622,79.736l2.444,1.381l-0.539,0.956l0.016,0.009l0.031,0.018c0.889-0.365,2.087-0.475,3.419,0.278
				c3.087,1.743,2.716,5.11,1.575,7.132c-1.418,2.508-4.332,3.569-6.81,2.171c-1.567-0.885-1.879-2.054-2.006-2.56l-2.08,3.683
				l-2.603-1.469L202.622,79.736z M207.01,87.962c0.584-1.034,0.506-2.65-0.922-3.456c-1.426-0.806-2.852-0.039-3.436,0.995
				c-0.619,1.098-0.434,2.67,0.932,3.44C204.947,89.712,206.391,89.06,207.01,87.962z"/>
			<path d="M214.221,86.502l2.252,1.679l-0.656,0.88l0.015,0.012l0.028,0.021c0.929-0.251,2.132-0.208,3.357,0.707
				c2.844,2.119,2.051,5.412,0.662,7.274c-1.722,2.309-4.748,2.995-7.027,1.295c-1.442-1.076-1.604-2.274-1.668-2.793l-2.529,3.392
				l-2.396-1.786L214.221,86.502z M217.537,95.217c0.71-0.952,0.835-2.565-0.479-3.545c-1.314-0.98-2.824-0.398-3.535,0.555
				c-0.752,1.01-0.767,2.594,0.49,3.529C215.27,96.692,216.783,96.228,217.537,95.217z"/>
			<path d="M231.199,100.705l-12.756,6.308l-2.313-2.164l3.776-1.718l3.773-9.462l2.326,2.178l-2.501,5.597l0.024,0.025l5.354-2.929
				L231.199,100.705z"/>
			<path d="M232.508,102.078l1.816,2.142l-0.838,0.711l0.013,0.014l0.022,0.028c0.961-0.036,2.123,0.276,3.112,1.443
				c2.294,2.704,0.78,5.735-0.989,7.238c-2.197,1.862-5.302,1.851-7.142-0.318c-1.165-1.373-1.053-2.578-0.998-3.097l-3.228,2.736
				l-1.934-2.279L232.508,102.078z M233.779,111.317c0.906-0.771,1.391-2.313,0.33-3.563c-1.059-1.25-2.661-1.023-3.566-0.256
				c-0.962,0.816-1.331,2.357-0.318,3.552C231.238,112.245,232.818,112.132,233.779,111.317z"/>
			<path d="M243.975,116.348c1.996,3.039,0.562,6.068-1.485,7.412c-2.046,1.343-5.396,1.453-7.392-1.586
				c-1.994-3.038-0.561-6.068,1.486-7.412C238.629,113.42,241.979,113.309,243.975,116.348z M237.43,120.644
				c0.711,1.083,2.201,1.419,3.42,0.618c1.219-0.8,1.504-2.3,0.793-3.383c-0.711-1.084-2.201-1.419-3.42-0.619
				C237.004,118.06,236.719,119.561,237.43,120.644z"/>
			<path d="M249.4,126.277l0.676,1.271l-2.002,1.064l-0.676-1.27l-6.815,3.625l-1.403-2.636l6.816-3.627l-0.693-1.303l2.002-1.065
				l0.693,1.303l2.938-1.563l1.403,2.638L249.4,126.277z"/>
			<path d="M245.813,142.781l-1.146-2.76l0.997-0.414l-0.016-0.033c-1.09-0.093-1.982-1.067-2.433-2.147
				c-1.216-2.926,0.366-5.592,3.011-6.692c3.024-1.257,5.825,0.133,6.85,2.594c0.629,1.513,0.25,2.664-0.178,3.231l0.014,0.034
				l0.98-0.408l1.147,2.76L245.813,142.781z M245.967,136.771c0.719,1.728,2.424,1.701,3.321,1.328
				c1.112-0.463,2.026-1.739,1.377-3.302c-0.657-1.579-2.278-1.725-3.325-1.288C246.477,133.868,245.275,135.108,245.967,136.771z"
				/>
			<path d="M256.219,141.95l0.67,2.709l-1.031,0.255l0.01,0.035c0.458,0.127,1.574,0.519,2.023,2.335
				c0.211,0.856,0.203,2.101-1.039,3.223c1.09,0.362,2.123,1.163,2.489,2.647c0.168,0.682,0.279,1.805-0.349,2.793
				c-0.735,1.146-1.348,1.445-3.497,1.977l-5.293,1.31l-0.718-2.9l5.154-1.274c0.786-0.194,2.147-0.531,1.78-2.017
				c-0.396-1.606-1.862-1.244-2.405-1.11l-5.293,1.31l-0.718-2.9l5.276-1.305c0.522-0.13,2.025-0.501,1.668-1.951
				c-0.406-1.643-1.979-1.253-2.557-1.111l-5.154,1.274l-0.717-2.9L256.219,141.95z"/>
			<path d="M251.139,169.778l-0.281-2.813l1.058-0.105l-0.004-0.036c-1.333-0.481-1.563-1.688-1.638-2.44
				c-0.063-0.609-0.063-2.057,0.961-3.046c0.906-0.887,1.611-1.066,2.974-1.202l5.946-0.597l0.298,2.974l-5.498,0.552
				c-0.683,0.068-1.988,0.199-1.83,1.793c0.088,0.859,0.619,1.656,2.194,1.498l5.464-0.548l0.299,2.974L251.139,169.778z"/>
			<path d="M258.334,175.884c0.217-0.018,0.758-0.052,0.76-0.934c0.004-0.63-0.393-0.848-0.662-0.849
				c-0.541-0.002-0.85,0.735-1.086,1.526c-0.475,1.691-0.984,3.49-3.146,3.481c-2.106-0.007-3.396-1.865-3.39-4.08
				c0.006-1.513,0.698-3.797,3.328-4.059l-0.011,2.972c-0.919,0.122-0.922,1.005-0.923,1.131c-0.002,0.504,0.285,1.046,0.771,1.047
				c0.772,0.003,0.867-0.734,1.61-2.642c0.419-1.294,1.271-2.371,2.619-2.367c1.979,0.008,3.289,1.813,3.28,3.884
				c-0.004,1.313-0.534,3.581-3.163,3.823L258.334,175.884z"/>
		</g>
	</g>
</g>
</svg>
